<?xml version="1.0" encoding="UTF-8" standalone="no"?>
<svg
   version="1.1"
   id="svg2445"
   xml:space="preserve"
   width="407.55807"
   height="323.48987"
   viewBox="0 0 407.55808 323.48987"
   sodipodi:docname="Dumbo.svg"
   inkscape:version="1.2.2 (b0a8486541, 2022-12-01)"
   xmlns:inkscape="http://www.inkscape.org/namespaces/inkscape"
   xmlns:sodipodi="http://sodipodi.sourceforge.net/DTD/sodipodi-0.dtd"
   xmlns="http://www.w3.org/2000/svg"
   xmlns:svg="http://www.w3.org/2000/svg"
   xmlns:rdf="http://www.w3.org/1999/02/22-rdf-syntax-ns#"
   xmlns:cc="http://creativecommons.org/ns#"
   xmlns:dc="http://purl.org/dc/elements/1.1/"><sodipodi:namedview
     id="namedview35838"
     pagecolor="#ffffff"
     bordercolor="#000000"
     borderopacity="0.25"
     inkscape:showpageshadow="2"
     inkscape:pageopacity="0.0"
     inkscape:pagecheckerboard="0"
     inkscape:deskcolor="#d1d1d1"
     showgrid="false"
     inkscape:zoom="0.96608124"
     inkscape:cx="299.66424"
     inkscape:cy="249.97898"
     inkscape:window-width="1440"
     inkscape:window-height="900"
     inkscape:window-x="0"
     inkscape:window-y="0"
     inkscape:window-maximized="1"
     inkscape:current-layer="g2453" /><metadata
     id="metadata2451"><rdf:RDF><cc:Work
         rdf:about=""><dc:format>image/svg+xml</dc:format><dc:type
           rdf:resource="http://purl.org/dc/dcmitype/StillImage" /></cc:Work></rdf:RDF></metadata><defs
     id="defs2449"><clipPath
       clipPathUnits="userSpaceOnUse"
       id="clipPath2461"><path
         d="M 13,10 H 583 V 782 H 13 Z"
         id="path2459" /></clipPath></defs><g
     id="g2453"
     transform="matrix(1.3333333,0,0,-1.3333333,-170.00861,774.1966)"><path
       d="m 326.144,487.669 c 0,0 -16.326,54.917 -72.727,46.605 0,0 -7.421,1.484 -8.312,12.765 0,0 -2.671,6.53 -3.265,-3.266 0,0 0.594,-7.421 2.672,-11.873 0,0 -25.529,-7.125 -42.45,-37.403 0,0 -32.949,3.562 -35.621,-17.514 0,0 8.312,-33.543 31.763,-29.982 0,0 0.593,-4.749 3.265,-10.093 0,0 20.482,-5.937 47.496,-0.89 0,0 28.2,-1.187 34.137,-6.828 0,0 5.937,23.748 23.154,25.826 l -0.297,24.341 20.482,5.937 z"
       style="fill:#d7d6ca;fill-opacity:1;fill-rule:nonzero;stroke:#231f20;stroke-width:2;stroke-linecap:butt;stroke-linejoin:miter;stroke-miterlimit:4;stroke-dasharray:none;stroke-opacity:1"
       id="path2499" /><path
       d="m 206.218,449.673 c -4.749,-2.375 -7.718,-2.672 -7.718,-2.672 0,0 5.937,-2.375 8.312,-1.484"
       style="fill:none;stroke:#231f20;stroke-width:1;stroke-linecap:butt;stroke-linejoin:miter;stroke-miterlimit:4;stroke-dasharray:none;stroke-opacity:1"
       id="path2501" /><path
       d="m 188.705,468.968 c 2.968,13.358 9.499,16.623 9.499,16.623 0,0 -6.531,1.188 -13.656,-12.467"
       style="fill:none;stroke:#231f20;stroke-width:0.5;stroke-linecap:butt;stroke-linejoin:miter;stroke-miterlimit:4;stroke-dasharray:none;stroke-opacity:1"
       id="path2503" /><path
       d="m 284.042,531.107 c 0,0 -12.438,5.085 -31.196,2.611 0,0 -6.964,2.199 -8.796,10.994 0,0 -1.099,8.658 -2.199,-1.099 0,0 0.733,-7.696 2.932,-12.094 0,0 -25.287,-6.597 -42.878,-37.747 0,0 -31.884,3.665 -35.548,-16.858 l 1.557,-4.352 c 0,0 3.573,19.744 30.692,16.813 0,-10e-4 -2.198,-8.063 -0.366,-11.728 0,0 20.546,69.219 83.946,52.36 l 1.856,1.1"
       style="fill:#d9d9d9;fill-opacity:1;fill-rule:nonzero;stroke:none"
       id="path2585" /><path
       d="m 202.062,495.091 c 0,0 -5.936,-10.093 -3.265,-18.702"
       style="fill:none;stroke:#231f20;stroke-width:2;stroke-linecap:butt;stroke-linejoin:miter;stroke-miterlimit:4;stroke-dasharray:none;stroke-opacity:1"
       id="path2587" /><path
       d="m 350.783,470.155 c 0,0 30.575,46.308 40.371,88.461 0,0 10.983,45.714 30.279,2.375 0,0 28.2,-66.197 -50.167,-113.396 0,0 -7.125,12.468 -21.077,14.248 z"
       style="fill:#d7d6ca;fill-opacity:1;fill-rule:nonzero;stroke:#231f20;stroke-width:2;stroke-linecap:butt;stroke-linejoin:miter;stroke-miterlimit:4;stroke-dasharray:none;stroke-opacity:1"
       id="path2591" /><path
       d="m 369.134,452.222 c 0,0 40.679,26.021 47.276,55.705 0,0 0.733,15.758 -5.132,6.963 0,0 -6.23,-27.486 -46.908,-58.27 l 4.764,-4.398"
       style="fill:#a09d8d;fill-opacity:1;fill-rule:nonzero;stroke:none"
       id="path2593" /><path
       d="m 351.08,463.031 c 0,0 22.857,-2.672 24.044,-31.169 0,0 40.561,-1.195 13.845,-31.771 0,0 5.222,-1.649 16.731,6.835 0,0 7.421,7.422 18.701,0 0,0 10.983,5.344 6.827,-8.014 0,0 -8.015,-0.594 -10.686,-9.499 0,0 -5.937,-12.468 -13.358,-0.89 0,0 -25.232,-20.186 -37.7,-16.625 0,0 -8.608,-8.905 -13.061,-15.732 0,0 -32.95,13.951 -48.386,11.874 0,0 -13.655,-0.297 -16.921,5.937 0,0 -6.53,8.015 -0.593,16.03 l -3.265,4.155 c 0,0 8.608,12.468 0,21.67 0,0 -8.015,8.905 -23.748,8.905 0,0 -69.165,-4.155 -111.615,26.42 0,0 -21.966,9.202 -22.856,-7.125 0,0 -5.641,18.999 20.481,11.578 0,0 41.559,-27.904 101.226,-18.999 0,0 19.889,1.782 31.169,-5.343 0,0 5.343,21.076 21.669,25.232 0,0 25.232,-15.435 46.605,1.485 z"
       style="fill:#d7d6ca;fill-opacity:1;fill-rule:nonzero;stroke:#231f20;stroke-width:2;stroke-linecap:butt;stroke-linejoin:miter;stroke-miterlimit:4;stroke-dasharray:none;stroke-opacity:1"
       id="path2595" /><path
       d="m 351.376,459.469 c 0,0 -10.686,-20.779 -47.792,-4.156 l -0.296,23.747 c 0,0 0.89,6.234 21.669,8.016 0,0 21.076,1.78 24.936,-4.157 z"
       style="fill:#ffffff;fill-opacity:1;fill-rule:nonzero;stroke:#231f20;stroke-width:2.5;stroke-linecap:butt;stroke-linejoin:miter;stroke-miterlimit:4;stroke-dasharray:none;stroke-opacity:1"
       id="path2597" /><path
       d="m 349.893,482.623 c 0,0 -2.079,-5.64 -17.515,-6.828 0,0 -24.341,-2.671 -29.09,3.562"
       style="fill:#ffffff;fill-opacity:1;fill-rule:nonzero;stroke:#231f20;stroke-width:2.5;stroke-linecap:butt;stroke-linejoin:miter;stroke-miterlimit:4;stroke-dasharray:none;stroke-opacity:1"
       id="path2599" /><path
       d="m 350.783,458.578 c 0,0 8.905,-8.905 -11.577,-13.655 0,0 -22.561,-4.452 -35.918,10.687 0,0 31.762,-15.436 47.495,2.968 z"
       style="fill:#ffffff;fill-opacity:1;fill-rule:nonzero;stroke:#231f20;stroke-width:1;stroke-linecap:butt;stroke-linejoin:miter;stroke-miterlimit:4;stroke-dasharray:none;stroke-opacity:1"
       id="path2601" /><path
       d="m 324.979,382.926 c 0,0 -0.593,-3.265 -6.233,-6.531"
       style="fill:none;stroke:#231f20;stroke-width:0.5;stroke-linecap:butt;stroke-linejoin:miter;stroke-miterlimit:4;stroke-dasharray:none;stroke-opacity:1"
       id="path2603" /><path
       d="m 389.931,399.954 c 0,0 -17.8,0.857 -26.111,11.544"
       style="fill:none;stroke:#231f20;stroke-width:1;stroke-linecap:butt;stroke-linejoin:miter;stroke-miterlimit:4;stroke-dasharray:none;stroke-opacity:1"
       id="path2605" /><path
       d="m 339.923,394.844 c 0,0 10.154,15.005 25.826,14.249 m 2.894,-2.326 c 0,0 -12.794,1.707 -24.935,-16.029 m 28.885,13.861 c 0,0 -14.545,0.302 -25.232,-17.514"
       style="fill:none;stroke:#231f20;stroke-width:0.5;stroke-linecap:butt;stroke-linejoin:miter;stroke-miterlimit:4;stroke-dasharray:none;stroke-opacity:1"
       id="path2607" /><path
       d="m 312.49,432.159 c 0,0 -6.531,-2.672 -7.124,-8.906 0,0 -0.297,-4.452 3.561,-1.187 0,0 2.078,3.265 4.453,5.937 0,0 3.562,3.562 -0.89,4.156"
       style="fill:#231f20;fill-opacity:1;fill-rule:nonzero;stroke:none"
       id="path2609" /><path
       d="m 355.299,443.794 c 0,-10e-4 5.635,0.549 8.108,-0.688 0,0 2.062,0.688 -0.274,2.474 0,0 -3.573,2.062 -6.185,1.237 0,0 -3.985,0.138 -1.649,-3.023"
       style="fill:#231f20;fill-opacity:1;fill-rule:nonzero;stroke:none"
       id="path2611" /><path
       d="m 322.879,418.207 c 0,0 0.811,1.536 0.262,3.323 0,0 -0.413,-2.749 -1.237,-3.711 0,0 0.275,1.787 -0.962,3.711 0,0 0.825,-3.024 0.275,-4.26 0,0 -0.55,2.061 -1.787,2.748 0,0 1.099,-1.649 0.825,-3.161 0,0 1.538,-0.324 2.624,1.35 z"
       style="fill:#231f20;fill-opacity:1;fill-rule:nonzero;stroke:#231f20;stroke-width:0.1;stroke-linecap:butt;stroke-linejoin:miter;stroke-miterlimit:4;stroke-dasharray:none;stroke-opacity:1"
       id="path2613" /><path
       d="m 364.152,435.857 c 0,0 1.347,1.097 1.54,2.957 0,0 -1.454,-2.369 -2.59,-2.932 0,0 0.952,1.537 0.566,3.791 0,0 -0.423,-3.105 -1.413,-4.028 0,0 0.301,2.112 -0.57,3.228 0,0 0.368,-1.948 -0.477,-3.232 0,0 1.29,-0.9 2.944,0.216 z"
       style="fill:#231f20;fill-opacity:1;fill-rule:nonzero;stroke:#231f20;stroke-width:0.1;stroke-linecap:butt;stroke-linejoin:miter;stroke-miterlimit:4;stroke-dasharray:none;stroke-opacity:1"
       id="path2615" /><path
       d="m 322.363,415.693 c -3.644,-0.914 -5.402,-6.424 -3.927,-12.306 1.476,-5.883 5.627,-9.91 9.27,-8.996 3.645,0.914 5.402,6.424 3.927,12.306 -1.476,5.882 -5.627,9.909 -9.27,8.996"
       style="fill:#ffffff;fill-opacity:1;fill-rule:nonzero;stroke:none"
       id="path2617" /><path
       d="m 327.48,394.431 c -2.395,-0.601 -4.96,1.402 -5.731,4.473 -0.77,3.071 0.547,6.049 2.941,6.649 2.395,0.601 4.96,-1.402 5.731,-4.473 0.77,-3.072 -0.547,-6.049 -2.941,-6.649"
       style="fill:#231f20;fill-opacity:1;fill-rule:nonzero;stroke:none"
       id="path2619" /><path
       d="m 327.643,401.406 c -0.572,-0.144 -1.153,0.204 -1.297,0.777 -0.143,0.572 0.204,1.153 0.777,1.296 0.573,0.145 1.153,-0.204 1.297,-0.776 0.144,-0.573 -0.204,-1.153 -0.777,-1.297"
       style="fill:#ffffff;fill-opacity:1;fill-rule:nonzero;stroke:none"
       id="path2621" /><path
       d="m 361.492,433.899 c -3.644,-0.914 -5.403,-6.424 -3.927,-12.306 1.476,-5.883 5.626,-9.91 9.27,-8.996 3.644,0.914 5.402,6.424 3.927,12.306 -1.476,5.883 -5.627,9.91 -9.27,8.996"
       style="fill:#ffffff;fill-opacity:1;fill-rule:nonzero;stroke:none"
       id="path2623" /><path
       d="m 366.609,412.637 c -2.395,-0.601 -4.961,1.402 -5.731,4.473 -0.771,3.072 0.546,6.049 2.941,6.649 2.394,0.601 4.96,-1.402 5.73,-4.473 0.771,-3.072 -0.546,-6.049 -2.94,-6.649"
       style="fill:#231f20;fill-opacity:1;fill-rule:nonzero;stroke:none"
       id="path2625" /><path
       d="m 366.772,419.612 c -0.573,-0.143 -1.153,0.204 -1.297,0.777 -0.144,0.572 0.204,1.154 0.776,1.296 0.573,0.145 1.154,-0.204 1.298,-0.776 0.143,-0.573 -0.204,-1.153 -0.777,-1.297"
       style="fill:#ffffff;fill-opacity:1;fill-rule:nonzero;stroke:none"
       id="path2627" /><path
       d="m 324.364,415.832 c 0,0 -10.431,-0.211 -4.659,-16.565 0,0 -8.108,15.117 3.174,18.94 0,0 5.072,0.299 1.485,-2.375"
       style="fill:#231f20;fill-opacity:1;fill-rule:nonzero;stroke:none"
       id="path2629" /><path
       d="m 365.032,433.346 c 0,0 -9.452,3.642 -7.672,-12.091 0,0 -4.122,15.667 5.89,14.763 0,0 3.73,-1.02 1.782,-2.672"
       style="fill:#231f20;fill-opacity:1;fill-rule:nonzero;stroke:none"
       id="path2631" /><path
       d="m 313.836,394.71 c 0,-10e-4 14.843,3.265 16.327,-5.938 0,0 1.484,-8.015 -16.03,-6.827 m 60.837,37.1 c 0,0 -9.201,-4.453 -5.639,-9.795 0,0 2.077,-6.234 11.577,0.593"
       style="fill:none;stroke:#231f20;stroke-width:1;stroke-linecap:butt;stroke-linejoin:miter;stroke-miterlimit:4;stroke-dasharray:none;stroke-opacity:1"
       id="path2633" /><path
       d="m 361.767,372.492 c 0,0 -3.86,-2.968 -7.422,-8.014 v -0.297 c -13.061,4.453 -29.981,18.108 -29.981,18.108 18.7,-8.609 44.823,-10.391 44.823,-10.391"
       style="fill:#231f20;fill-opacity:1;fill-rule:nonzero;stroke:#231f20;stroke-width:1;stroke-linecap:butt;stroke-linejoin:miter;stroke-miterlimit:4;stroke-dasharray:none;stroke-opacity:1"
       id="path2635" /><path
       d="m 354.345,364.478 c 0,0 -9.216,3.317 -19.798,10.463 0,0 6.322,3.436 15.255,-2.198 0,0 2.061,1.649 4.535,0.55 0,0 3.848,-0.963 6.871,-1.237 0,0 -4.81,-3.299 -6.863,-7.578"
       style="fill:#cf103e;fill-opacity:1;fill-rule:nonzero;stroke:none"
       id="path2637" /><path
       d="m 347.191,374.529 c 2.611,-0.412 4.953,-3.606 6.734,-6.871"
       style="fill:none;stroke:#231f20;stroke-width:0.5;stroke-linecap:butt;stroke-linejoin:miter;stroke-miterlimit:4;stroke-dasharray:none;stroke-opacity:1"
       id="path2639" /><path
       d="m 412.527,392.678 -5.64,-4.749 m 17.217,19.294 c 0,0 1.484,-1.483 3.266,-2.671"
       style="fill:none;stroke:#231f20;stroke-width:1;stroke-linecap:butt;stroke-linejoin:miter;stroke-miterlimit:4;stroke-dasharray:none;stroke-opacity:1"
       id="path2641" /><path
       d="m 280.133,390.6 c 0,0 0.297,-18.702 11.577,-28.201 0,0 -10.983,-29.09 -37.105,-18.701 0,0 -6.531,2.969 -13.062,33.247 0,0 23.451,3.562 38.59,13.655 z"
       style="fill:#d7d6ca;fill-opacity:1;fill-rule:nonzero;stroke:#231f20;stroke-width:2.5;stroke-linecap:butt;stroke-linejoin:miter;stroke-miterlimit:4;stroke-dasharray:none;stroke-opacity:1"
       id="path2643" /><path
       d="m 269.447,364.181 c 0,0 -0.594,14.842 11.874,2.672 0,-0.001 -6.234,-0.891 -11.874,-2.672"
       style="fill:#a09d8d;fill-opacity:1;fill-rule:nonzero;stroke:none"
       id="path2645" /><path
       d="m 267.369,363.29 c 0,0 -15.733,-7.421 -13.358,-18.998 0,0 6.234,-9.796 24.341,-2.672 0,0 17.514,6.828 14.843,18.999 0,0 -2.672,10.983 -25.826,2.671 z"
       style="fill:#a09d8d;fill-opacity:1;fill-rule:nonzero;stroke:#231f20;stroke-width:2;stroke-linecap:butt;stroke-linejoin:miter;stroke-miterlimit:4;stroke-dasharray:none;stroke-opacity:1"
       id="path2647" /><path
       d="m 280.7,366.897 c 0,0 -0.891,3.265 2.968,5.64 0,0 0.772,-2.828 3.741,-6.391 0,0 -1.96,0.751 -6.709,0.751"
       style="fill:#a09d8d;fill-opacity:1;fill-rule:nonzero;stroke:none"
       id="path2649" /><path
       d="m 128.742,445.517 c 0,0 -1.782,-8.312 10.389,-21.967 0,0 67.087,-83.711 147.83,-29.091 0,0 10.093,9.796 0.891,21.373 0,0 -8.609,10.983 -27.311,9.202 0,0 -60.853,-4.155 -106.864,25.233 0,0 -21.967,11.576 -24.935,-4.75 z"
       style="fill:#a09d8d;fill-opacity:1;fill-rule:nonzero;stroke:#231f20;stroke-width:1;stroke-linecap:butt;stroke-linejoin:miter;stroke-miterlimit:4;stroke-dasharray:none;stroke-opacity:1"
       id="path2651" /></g></svg>
